XGBoost
…
bind_cols(
  predict(xgboost_cls_fit, brthwt_test),
  predict(xgboost_cls_fit, brthwt_test, type = "prob")
)

# A tibble: 48 × 3
   .pred_class `.pred_Not Low` .pred_Low
   <fct>                 <dbl>     <dbl>
 1 Not Low               0.989    0.0106
 2 Not Low               0.989    0.0106
 3 Not Low               0.989    0.0106
 4 Not Low               0.989    0.0106
 5 Not Low               0.989    0.0106
 6 Not Low               0.989    0.0106
 7 Not Low               0.989    0.0106
 8 Not Low               0.989    0.0106
 9 Not Low               0.989    0.0106
10 Not Low               0.989    0.0106
# ℹ 38 more rows
…
predict(xgboost_reg_fit, brthwt_test)

# A tibble: 48 × 1
     .pred
     <dbl>
 1 0.996  
 2 0.00158
 3 0.00158
 4 0.00158
 5 0.00158
 6 0.00158
 7 0.00158
 8 0.00158
 9 0.00158
10 0.00158
# ℹ 38 more rows
…
