CMH Test
…
epiDisplay::mhor()
❌
❌
❌
✅
✅
OR are limited to 2x2xK design

Data used

We will use the CDISC Pilot data set, which is publicly available on the PHUSE Test Data Factory repository. We applied very basic filtering conditions upfront (see below) and this data set served as the basis of the examples to follow.

# A tibble: 231 × 36
   STUDYID SITEID SITEGR1 USUBJID TRTSDT     TRTEDT     TRTP  TRTPN   AGE AGEGR1
   <chr>   <chr>  <chr>   <chr>   <date>     <date>     <chr> <dbl> <dbl> <chr> 
 1 CDISCP… 701    701     01-701… 2014-01-02 2014-07-02 Plac…     0    63 <65   
 2 CDISCP… 701    701     01-701… 2012-08-05 2012-09-01 Plac…     0    64 <65   
 3 CDISCP… 701    701     01-701… 2013-07-19 2014-01-14 Xano…    81    71 65-80 
 4 CDISCP… 701    701     01-701… 2014-03-18 2014-03-31 Xano…    54    74 65-80 
 5 CDISCP… 701    701     01-701… 2014-07-01 2014-12-30 Xano…    81    77 65-80 
 6 CDISCP… 701    701     01-701… 2013-02-12 2013-03-09 Plac…     0    85 >80   
 7 CDISCP… 701    701     01-701… 2014-01-01 2014-07-09 Xano…    54    68 65-80 
 8 CDISCP… 701    701     01-701… 2012-09-07 2012-09-16 Xano…    54    81 >80   
 9 CDISCP… 701    701     01-701… 2012-11-30 2013-01-23 Xano…    54    84 >80   
10 CDISCP… 701    701     01-701… 2014-03-12 2014-09-09 Plac…     0    52 <65   
# ℹ 221 more rows
# ℹ 26 more variables: AGEGR1N <dbl>, RACE <chr>, RACEN <dbl>, SEX <chr>,
#   ITTFL <chr>, EFFFL <chr>, COMP24FL <chr>, AVISIT <chr>, AVISITN <dbl>,
#   VISIT <chr>, VISITNUM <dbl>, ADY <dbl>, ADT <date>, PARAMCD <chr>,
#   PARAM <chr>, PARAMN <dbl>, AVAL <dbl>, ANL01FL <chr>, DTYPE <chr>,
#   AWRANGE <chr>, AWTARGET <dbl>, AWTDIFF <dbl>, AWLO <dbl>, AWHI <dbl>,
#   AWU <chr>, QSSEQ <dbl>
…
