XGBoost
…
bind_cols(
  predict(xgboost_cls_fit, brthwt_test),
  predict(xgboost_cls_fit, brthwt_test, type = "prob")
)

# A tibble: 48 × 3
   .pred_class `.pred_Not Low` .pred_Low
   <fct>                 <dbl>     <dbl>
 1 Not Low               0.985    0.0151
 2 Not Low               0.988    0.0116
 3 Not Low               0.988    0.0116
 4 Not Low               0.988    0.0116
 5 Not Low               0.988    0.0116
 6 Not Low               0.988    0.0116
 7 Not Low               0.988    0.0116
 8 Not Low               0.988    0.0116
 9 Not Low               0.988    0.0116
10 Not Low               0.988    0.0116
# ℹ 38 more rows
…
predict(xgboost_reg_fit , brthwt_test)

# A tibble: 48 × 1
     .pred
     <dbl>
 1 0.00253
 2 0.00253
 3 0.00253
 4 0.00253
 5 0.00253
 6 0.00253
 7 0.00253
 8 0.00253
 9 0.00253
10 0.00253
# ℹ 38 more rows
…
